PI 400
    GPIO
        https://pinout.xyz/#





    pi-400              6502
-------------------------------------------
                <=      R / W
                <=      IRQ
    RESET       =>
    CLOCK       =>



NES
    https://www.nesdev.org/wiki/Nesdev_Wiki
    https://nesdoug.com/2018/09/05/introduction/
    https://taywee.github.io/NerdyNights/nerdynights/nesarchitecture.html


Not used: I2C1

GPIO
    DATA
    14, 15, 18, 23
    24, 25, 8,  7

    ADDRESS
    12, 16, 20, 21,     26, 19, 13, 6,
    5,  11,  9, 10,     22, 27, 17, 4
