EESchema Schematic File Version 4
EELAYER 30 0
EELAYER END
$Descr USLedger 17000 11000
encoding utf-8
Sheet 1 1
Title ""
Date ""
Rev ""
Comp ""
Comment1 ""
Comment2 ""
Comment3 ""
Comment4 ""
$EndDescr
$Comp
L 6502:W65C02SxP U1
U 1 1 61B179F3
P 11950 4100
F 0 "U1" H 12200 5600 50  0000 C CNN
F 1 "W65C02SxP" H 12250 5500 50  0000 C CIB
F 2 "Package_DIP:DIP-40_W15.24mm_Socket_LongPads" H 11950 6100 50  0001 C CNN
F 3 "http://www.westerndesigncenter.com/wdc/documentation/w65c02s.pdf" H 11950 6000 50  0001 C CNN
	1    11950 4100
	1    0    0    -1  
$EndComp
$Comp
L power:+5V #PWR0101
U 1 1 61B1A8F8
P 11950 2400
F 0 "#PWR0101" H 11950 2250 50  0001 C CNN
F 1 "+5V" H 11965 2573 50  0000 C CNN
F 2 "" H 11950 2400 50  0001 C CNN
F 3 "" H 11950 2400 50  0001 C CNN
	1    11950 2400
	1    0    0    -1  
$EndComp
Wire Wire Line
	11950 2400 11950 2550
$Comp
L power:GND #PWR0102
U 1 1 61B1C2CF
P 11950 5850
F 0 "#PWR0102" H 11950 5600 50  0001 C CNN
F 1 "GND" H 11955 5677 50  0000 C CNN
F 2 "" H 11950 5850 50  0001 C CNN
F 3 "" H 11950 5850 50  0001 C CNN
	1    11950 5850
	1    0    0    -1  
$EndComp
$Comp
L Device:R 1K1
U 1 1 61B1C96D
P 11050 4400
F 0 "1K1" V 10843 4400 50  0000 C CNN
F 1 "R1" V 10934 4400 50  0000 C CNN
F 2 "Resistor_THT:R_Axial_DIN0207_L6.3mm_D2.5mm_P10.16mm_Horizontal" V 10980 4400 50  0001 C CNN
F 3 "~" H 11050 4400 50  0001 C CNN
	1    11050 4400
	0    1    1    0   
$EndComp
Wire Wire Line
	11200 4400 11350 4400
Wire Wire Line
	11950 5650 11950 5850
Wire Wire Line
	10650 5300 11350 5300
Wire Wire Line
	10900 4400 10650 4400
Connection ~ 10650 4400
Wire Wire Line
	10650 4400 10650 4500
Wire Wire Line
	11350 4500 10650 4500
Connection ~ 10650 4500
Wire Wire Line
	10650 4500 10650 5300
$Comp
L Memory_RAM:HM62256BLP U2
U 1 1 61B20EA6
P 14550 4100
F 0 "U2" H 14850 5050 50  0000 C CNN
F 1 "HM62256BLP" H 14850 4950 50  0000 C CNN
F 2 "Package_DIP:DIP-28_W15.24mm" H 14550 4000 50  0001 C CNN
F 3 "https://web.mit.edu/6.115/www/document/62256.pdf" H 14550 4000 50  0001 C CNN
	1    14550 4100
	1    0    0    -1  
$EndComp
Entry Wire Line
	12750 2900 12850 2800
Entry Wire Line
	12750 3000 12850 2900
Entry Wire Line
	12750 3100 12850 3000
Entry Wire Line
	12750 3200 12850 3100
Entry Wire Line
	12750 3300 12850 3200
Entry Wire Line
	12750 3400 12850 3300
Entry Wire Line
	12750 3500 12850 3400
Entry Wire Line
	12750 3600 12850 3500
Entry Wire Line
	12750 3700 12850 3600
Entry Wire Line
	12750 3800 12850 3700
Entry Wire Line
	12750 3900 12850 3800
Entry Wire Line
	12750 4000 12850 3900
Entry Wire Line
	12750 4100 12850 4000
Entry Wire Line
	12750 4200 12850 4100
Entry Wire Line
	12750 4300 12850 4200
Entry Wire Line
	12750 4400 12850 4300
Wire Wire Line
	12550 2900 12750 2900
Wire Wire Line
	12550 3000 12750 3000
Wire Wire Line
	12550 3100 12750 3100
Wire Wire Line
	12550 3200 12750 3200
Wire Wire Line
	12550 3300 12750 3300
Wire Wire Line
	12550 3400 12750 3400
Wire Wire Line
	12550 3500 12750 3500
Wire Wire Line
	12550 3600 12750 3600
Wire Wire Line
	12550 3700 12750 3700
Wire Wire Line
	12550 3800 12750 3800
Wire Wire Line
	12550 3900 12750 3900
Wire Wire Line
	12550 4000 12750 4000
Wire Wire Line
	12550 4100 12750 4100
Wire Wire Line
	12550 4200 12750 4200
Wire Wire Line
	12550 4300 12750 4300
Wire Wire Line
	12550 4400 12750 4400
Text Label 12650 2900 0    50   ~ 0
A0
Text Label 12650 3000 0    50   ~ 0
A1
Text Label 12650 3100 0    50   ~ 0
A2
Text Label 12650 3200 0    50   ~ 0
A3
Text Label 12650 3300 0    50   ~ 0
A4
Text Label 12650 3400 0    50   ~ 0
A5
Text Label 12650 3500 0    50   ~ 0
A6
Text Label 12650 3600 0    50   ~ 0
A7
Text Label 12650 3700 0    50   ~ 0
A8
Text Label 12650 3800 0    50   ~ 0
A9
Text Label 12650 3900 0    50   ~ 0
A10
Text Label 12650 4000 0    50   ~ 0
A11
Text Label 12650 4100 0    50   ~ 0
A12
Text Label 12650 4200 0    50   ~ 0
A13
Text Label 12650 4300 0    50   ~ 0
A14
Text Label 12650 4400 0    50   ~ 0
A15
$Comp
L power:GND #PWR0104
U 1 1 61B293CE
P 14550 5150
F 0 "#PWR0104" H 14550 4900 50  0001 C CNN
F 1 "GND" H 14555 4977 50  0000 C CNN
F 2 "" H 14550 5150 50  0001 C CNN
F 3 "" H 14550 5150 50  0001 C CNN
	1    14550 5150
	1    0    0    -1  
$EndComp
$Comp
L power:+5V #PWR0105
U 1 1 61B29FAD
P 14550 3000
F 0 "#PWR0105" H 14550 2850 50  0001 C CNN
F 1 "+5V" H 14565 3173 50  0000 C CNN
F 2 "" H 14550 3000 50  0001 C CNN
F 3 "" H 14550 3000 50  0001 C CNN
	1    14550 3000
	1    0    0    -1  
$EndComp
Wire Wire Line
	14550 3000 14550 3200
Wire Wire Line
	14550 5000 14550 5150
Entry Wire Line
	13700 4700 13800 4800
Entry Wire Line
	13700 4600 13800 4700
Entry Wire Line
	13700 4500 13800 4600
Entry Wire Line
	13700 4400 13800 4500
Entry Wire Line
	13700 4300 13800 4400
Entry Wire Line
	13700 4200 13800 4300
Entry Wire Line
	13700 4100 13800 4200
Entry Wire Line
	13700 4000 13800 4100
Entry Wire Line
	13700 3900 13800 4000
Entry Wire Line
	13700 3800 13800 3900
Entry Wire Line
	13700 3700 13800 3800
Entry Wire Line
	13700 3600 13800 3700
Entry Wire Line
	13700 3500 13800 3600
Entry Wire Line
	13700 3400 13800 3500
Entry Wire Line
	13700 3300 13800 3400
Wire Wire Line
	13800 3400 14050 3400
Wire Wire Line
	13800 3500 14050 3500
Wire Wire Line
	13800 3600 14050 3600
Wire Wire Line
	13800 3700 14050 3700
Wire Wire Line
	13800 3800 14050 3800
Wire Wire Line
	13800 3900 14050 3900
Wire Wire Line
	13800 4000 14050 4000
Wire Wire Line
	13800 4100 14050 4100
Wire Wire Line
	13800 4200 14050 4200
Wire Wire Line
	13800 4300 14050 4300
Wire Wire Line
	13800 4400 14050 4400
Wire Wire Line
	13800 4500 14050 4500
Wire Wire Line
	13800 4600 14050 4600
Wire Wire Line
	13800 4700 14050 4700
Wire Wire Line
	13800 4800 14050 4800
Text Label 13800 3400 0    50   ~ 0
A0
Text Label 13800 3500 0    50   ~ 0
A1
Text Label 13800 3600 0    50   ~ 0
A2
Text Label 13800 3700 0    50   ~ 0
A3
Text Label 13800 3800 0    50   ~ 0
A4
Text Label 13800 3900 0    50   ~ 0
A5
Text Label 13800 4000 0    50   ~ 0
A6
Text Label 13800 4100 0    50   ~ 0
A7
Text Label 13800 4200 0    50   ~ 0
A8
Text Label 13800 4300 0    50   ~ 0
A9
Text Label 13800 4400 0    50   ~ 0
A10
Text Label 13800 4500 0    50   ~ 0
A11
Text Label 13800 4600 0    50   ~ 0
A12
Text Label 13800 4700 0    50   ~ 0
A13
Text Label 13800 4800 0    50   ~ 0
A14
Entry Wire Line
	12750 4600 12850 4700
Entry Wire Line
	12750 4700 12850 4800
Entry Wire Line
	12750 4800 12850 4900
Entry Wire Line
	12750 4900 12850 5000
Entry Wire Line
	12750 5000 12850 5100
Entry Wire Line
	12750 5100 12850 5200
Entry Wire Line
	12750 5200 12850 5300
Entry Wire Line
	12750 5300 12850 5400
Wire Wire Line
	12550 4600 12750 4600
Wire Wire Line
	12550 4700 12750 4700
Wire Wire Line
	12550 4800 12750 4800
Wire Wire Line
	12550 4900 12750 4900
Wire Wire Line
	12550 5000 12750 5000
Wire Wire Line
	12550 5100 12750 5100
Wire Wire Line
	12550 5200 12750 5200
Wire Wire Line
	12550 5300 12750 5300
Entry Wire Line
	15250 3400 15350 3500
Entry Wire Line
	15250 3500 15350 3600
Entry Wire Line
	15250 3600 15350 3700
Entry Wire Line
	15250 3700 15350 3800
Entry Wire Line
	15250 3800 15350 3900
Entry Wire Line
	15250 3900 15350 4000
Entry Wire Line
	15250 4000 15350 4100
Entry Wire Line
	15250 4100 15350 4200
Wire Wire Line
	15050 3400 15250 3400
Wire Wire Line
	15050 3500 15250 3500
Wire Wire Line
	15050 3600 15250 3600
Wire Wire Line
	15050 3700 15250 3700
Wire Wire Line
	15050 3800 15250 3800
Wire Wire Line
	15050 3900 15250 3900
Wire Wire Line
	15050 4000 15250 4000
Wire Wire Line
	15050 4100 15250 4100
Text Label 15150 3400 0    50   ~ 0
D0
Text Label 15150 3500 0    50   ~ 0
D1
Text Label 15150 3600 0    50   ~ 0
D2
Text Label 15150 3700 0    50   ~ 0
D3
Text Label 15150 3800 0    50   ~ 0
D4
Text Label 15150 3900 0    50   ~ 0
D5
Text Label 15150 4000 0    50   ~ 0
D6
Text Label 15150 4100 0    50   ~ 0
D7
Text Label 12650 4600 0    50   ~ 0
D0
Text Label 12650 4700 0    50   ~ 0
D1
Text Label 12650 4800 0    50   ~ 0
D2
Text Label 12650 4900 0    50   ~ 0
D3
Text Label 12650 5000 0    50   ~ 0
D4
Text Label 12650 5100 0    50   ~ 0
D5
Text Label 12650 5200 0    50   ~ 0
D6
Text Label 12650 5300 0    50   ~ 0
D7
$Comp
L Connector_Generic:Conn_01x40 J1
U 1 1 61B82174
P 8950 3750
F 0 "J1" H 9030 3742 50  0000 L CNN
F 1 "Conn_01x40" H 9030 3651 50  0000 L CNN
F 2 "Connector_PinSocket_2.54mm:PinSocket_1x40_P2.54mm_Vertical" H 8950 3750 50  0001 C CNN
F 3 "~" H 8950 3750 50  0001 C CNN
	1    8950 3750
	-1   0    0    -1  
$EndComp
$Comp
L Connector_Generic:Conn_01x40 J2
U 1 1 61B85230
P 8000 3750
F 0 "J2" H 8080 3742 50  0000 L CNN
F 1 "Conn_01x40" H 8080 3651 50  0000 L CNN
F 2 "Connector_PinSocket_2.54mm:PinSocket_1x40_P2.54mm_Vertical" H 8000 3750 50  0001 C CNN
F 3 "~" H 8000 3750 50  0001 C CNN
	1    8000 3750
	-1   0    0    -1  
$EndComp
$Comp
L Connector_Generic:Conn_01x40 J3
U 1 1 61B8D837
P 7050 3750
F 0 "J3" H 7130 3742 50  0000 L CNN
F 1 "Conn_01x40" H 7130 3651 50  0000 L CNN
F 2 "Connector_PinSocket_2.54mm:PinSocket_1x40_P2.54mm_Vertical" H 7050 3750 50  0001 C CNN
F 3 "~" H 7050 3750 50  0001 C CNN
	1    7050 3750
	-1   0    0    -1  
$EndComp
Entry Wire Line
	9550 5550 9450 5650
Entry Wire Line
	9550 5450 9450 5550
Entry Wire Line
	9550 5350 9450 5450
Entry Wire Line
	9550 5250 9450 5350
Entry Wire Line
	9550 5150 9450 5250
Entry Wire Line
	9550 5050 9450 5150
Entry Wire Line
	9550 4950 9450 5050
Entry Wire Line
	9550 4850 9450 4950
Entry Wire Line
	9550 4750 9450 4850
Entry Wire Line
	9550 4650 9450 4750
Entry Wire Line
	9550 4550 9450 4650
Entry Wire Line
	9550 4450 9450 4550
Entry Wire Line
	9550 4350 9450 4450
Entry Wire Line
	9550 4250 9450 4350
Entry Wire Line
	9550 4150 9450 4250
Entry Wire Line
	9550 4050 9450 4150
Entry Wire Line
	9550 3950 9450 4050
Entry Wire Line
	9550 3850 9450 3950
Entry Wire Line
	9550 3750 9450 3850
Entry Wire Line
	9550 3650 9450 3750
Entry Wire Line
	9550 3550 9450 3650
Entry Wire Line
	9550 3450 9450 3550
Entry Wire Line
	9550 3350 9450 3450
Entry Wire Line
	9550 3250 9450 3350
Entry Wire Line
	9550 3150 9450 3250
Wire Wire Line
	9450 5650 9150 5650
Wire Wire Line
	9450 5550 9150 5550
Wire Wire Line
	9450 5450 9150 5450
Wire Wire Line
	9450 5350 9150 5350
Wire Wire Line
	9450 5250 9150 5250
Wire Wire Line
	9450 5150 9150 5150
Wire Wire Line
	9450 5050 9150 5050
Wire Wire Line
	9450 4950 9150 4950
Wire Wire Line
	9450 4850 9150 4850
Wire Wire Line
	9450 4750 9150 4750
Wire Wire Line
	9450 4650 9150 4650
Wire Wire Line
	9450 4550 9150 4550
Wire Wire Line
	9450 4450 9150 4450
Wire Wire Line
	9450 4350 9150 4350
Wire Wire Line
	9450 4250 9150 4250
Wire Wire Line
	9450 4150 9150 4150
Wire Wire Line
	9450 4050 9150 4050
Wire Wire Line
	9450 3950 9150 3950
Wire Wire Line
	9450 3850 9150 3850
Wire Wire Line
	9450 3750 9150 3750
Wire Wire Line
	9450 3650 9150 3650
Wire Wire Line
	9450 3550 9150 3550
Wire Wire Line
	9450 3450 9150 3450
Wire Wire Line
	9450 3350 9150 3350
Wire Wire Line
	9450 3250 9150 3250
Text Label 9450 5650 2    50   ~ 0
D7
Text Label 9450 5550 2    50   ~ 0
D6
Text Label 9450 5450 2    50   ~ 0
D5
Text Label 9450 5350 2    50   ~ 0
D4
Text Label 9450 5250 2    50   ~ 0
D3
Text Label 9450 5150 2    50   ~ 0
D2
Text Label 9450 5050 2    50   ~ 0
D1
Text Label 9450 4950 2    50   ~ 0
D0
Text Label 9450 4850 2    50   ~ 0
A15
Text Label 9450 4750 2    50   ~ 0
A14
Text Label 9450 4650 2    50   ~ 0
A13
Text Label 9450 4550 2    50   ~ 0
A12
Text Label 9450 4450 2    50   ~ 0
A11
Text Label 9450 4350 2    50   ~ 0
A10
Text Label 9450 4250 2    50   ~ 0
A9
Text Label 9450 4150 2    50   ~ 0
A8
Text Label 9450 4050 2    50   ~ 0
A7
Text Label 9450 3950 2    50   ~ 0
A6
Text Label 9450 3850 2    50   ~ 0
A5
Text Label 9450 3750 2    50   ~ 0
A4
Text Label 9450 3650 2    50   ~ 0
A3
Text Label 9450 3550 2    50   ~ 0
A2
Text Label 9450 3450 2    50   ~ 0
A1
Text Label 9450 3350 2    50   ~ 0
A0
Wire Wire Line
	8200 3350 7250 3350
Wire Wire Line
	8200 3450 7250 3450
Wire Wire Line
	8200 3550 7250 3550
Wire Wire Line
	8200 3650 7250 3650
Wire Wire Line
	8200 3750 7250 3750
Wire Wire Line
	8200 3850 7250 3850
Wire Wire Line
	7250 4050 8200 4050
Wire Wire Line
	7250 4150 8200 4150
Wire Wire Line
	7250 4250 8200 4250
Wire Wire Line
	7250 4350 8200 4350
Wire Wire Line
	7250 4450 8200 4450
Wire Wire Line
	7250 4550 8200 4550
Wire Wire Line
	7250 4650 8200 4650
Wire Wire Line
	7250 4750 8200 4750
Wire Wire Line
	7250 4850 8200 4850
Wire Wire Line
	7250 4950 8200 4950
Wire Wire Line
	7250 5050 8200 5050
Wire Wire Line
	7250 5150 8200 5150
Wire Wire Line
	7250 5250 8200 5250
Wire Wire Line
	7250 5350 8200 5350
Wire Wire Line
	7250 5450 8200 5450
Wire Wire Line
	7250 5550 8200 5550
Wire Wire Line
	7250 5650 8200 5650
Wire Wire Line
	7250 5750 8200 5750
Wire Wire Line
	8200 5750 9150 5750
Connection ~ 8200 5750
Connection ~ 9150 5650
Wire Wire Line
	8200 5650 9150 5650
Connection ~ 8200 5650
Connection ~ 9150 5550
Wire Wire Line
	8200 5550 9150 5550
Connection ~ 8200 5550
Connection ~ 9150 5450
Wire Wire Line
	8200 5450 9150 5450
Connection ~ 8200 5450
Connection ~ 9150 5350
Wire Wire Line
	8200 5350 9150 5350
Connection ~ 8200 5350
Connection ~ 9150 5250
Wire Wire Line
	8200 5250 9150 5250
Connection ~ 8200 5250
Connection ~ 9150 5150
Wire Wire Line
	8200 5150 9150 5150
Connection ~ 8200 5150
Connection ~ 9150 5050
Wire Wire Line
	8200 5050 9150 5050
Connection ~ 8200 5050
Connection ~ 9150 4950
Wire Wire Line
	8200 4950 9150 4950
Connection ~ 8200 4950
Connection ~ 9150 4850
Wire Wire Line
	8200 4850 9150 4850
Connection ~ 8200 4850
Connection ~ 9150 4750
Wire Wire Line
	8200 4750 9150 4750
Connection ~ 8200 4750
Connection ~ 9150 4650
Wire Wire Line
	8200 4650 9150 4650
Connection ~ 8200 4650
Connection ~ 9150 4550
Wire Wire Line
	8200 4550 9150 4550
Connection ~ 8200 4550
Connection ~ 9150 4450
Wire Wire Line
	8200 4450 9150 4450
Connection ~ 8200 4450
Connection ~ 9150 4350
Wire Wire Line
	8200 4350 9150 4350
Connection ~ 8200 4350
Connection ~ 9150 4250
Wire Wire Line
	8200 4250 9150 4250
Connection ~ 8200 4250
Connection ~ 9150 4150
Wire Wire Line
	8200 4150 9150 4150
Connection ~ 8200 4150
Connection ~ 9150 4050
Wire Wire Line
	7250 3950 8200 3950
Wire Wire Line
	8200 4050 9150 4050
Connection ~ 8200 4050
Connection ~ 9150 3950
Wire Wire Line
	9150 3950 8200 3950
Connection ~ 9150 3850
Connection ~ 8200 3950
Wire Wire Line
	9150 3850 8200 3850
Connection ~ 9150 3750
Connection ~ 8200 3850
Wire Wire Line
	9150 3750 8200 3750
Connection ~ 9150 3650
Connection ~ 8200 3750
Wire Wire Line
	8200 3650 9150 3650
Connection ~ 8200 3650
Connection ~ 9150 3550
Wire Wire Line
	9150 3550 8200 3550
Connection ~ 9150 3450
Connection ~ 8200 3550
Wire Wire Line
	8200 3450 9150 3450
Connection ~ 8200 3450
Connection ~ 9150 3350
Wire Wire Line
	9150 3350 8200 3350
Connection ~ 9150 3250
Connection ~ 8200 3350
Connection ~ 12850 6250
Wire Bus Line
	12850 6250 13200 6250
$Comp
L arduino:Arduino_Mega2560_Shield XA1
U 1 1 61DCC779
P 4350 3800
F 0 "XA1" H 4350 1419 60  0000 C CNN
F 1 "Arduino_Mega2560_Shield" H 4350 1313 60  0000 C CNN
F 2 "arduino:Arduino_Mega2560_Shield" H 5050 6550 60  0001 C CNN
F 3 "https://store.arduino.cc/arduino-mega-2560-rev3" H 5050 6550 60  0001 C CNN
	1    4350 3800
	1    0    0    -1  
$EndComp
Entry Wire Line
	5900 5250 6000 5350
Entry Wire Line
	5900 5050 6000 5150
Entry Wire Line
	5900 4850 6000 4950
Entry Wire Line
	5900 4750 6000 4850
Entry Wire Line
	5900 4650 6000 4750
Entry Wire Line
	5900 4550 6000 4650
Entry Wire Line
	5900 4450 6000 4550
Entry Wire Line
	5900 4350 6000 4450
Entry Wire Line
	5900 4250 6000 4350
Entry Wire Line
	5900 4150 6000 4250
Entry Wire Line
	5900 4050 6000 4150
Entry Wire Line
	5900 3950 6000 4050
Entry Wire Line
	5900 3850 6000 3950
Entry Wire Line
	5900 3750 6000 3850
Entry Wire Line
	5900 3650 6000 3750
Entry Wire Line
	5900 3550 6000 3650
Entry Wire Line
	5900 3450 6000 3550
Entry Wire Line
	5900 3350 6000 3450
Wire Bus Line
	6000 6250 9550 6250
Connection ~ 9550 6250
Wire Wire Line
	5650 5450 5900 5450
Text Label 5800 5450 0    50   ~ 0
A0
Wire Wire Line
	5650 5250 5900 5250
Wire Wire Line
	5650 5050 5900 5050
Wire Wire Line
	5650 4850 5900 4850
Wire Wire Line
	5650 4650 5900 4650
Wire Wire Line
	5650 4450 5900 4450
Wire Wire Line
	5650 4250 5900 4250
Wire Wire Line
	5650 4050 5900 4050
Wire Wire Line
	5650 3850 5900 3850
Text Label 5800 5250 0    50   ~ 0
A1
Text Label 5800 5050 0    50   ~ 0
A2
Text Label 5800 4850 0    50   ~ 0
A3
Text Label 5800 4650 0    50   ~ 0
A4
Text Label 5800 4450 0    50   ~ 0
A5
Text Label 5800 4250 0    50   ~ 0
A6
Text Label 5800 4050 0    50   ~ 0
A7
Text Label 5800 3850 0    50   ~ 0
A8
Wire Wire Line
	5650 3650 5900 3650
Entry Wire Line
	5900 3250 6000 3350
Entry Wire Line
	5900 3150 6000 3250
Entry Wire Line
	5900 3050 6000 3150
Entry Wire Line
	5900 2950 6000 3050
Entry Wire Line
	5900 2850 6000 2950
Wire Wire Line
	5650 3450 5900 3450
Wire Wire Line
	5650 3250 5900 3250
Wire Wire Line
	5650 3050 5900 3050
Wire Wire Line
	5650 2850 5900 2850
Text Label 5800 3650 0    50   ~ 0
A9
Text Label 5750 3450 0    50   ~ 0
A10
Text Label 5750 3250 0    50   ~ 0
A11
Text Label 5750 3050 0    50   ~ 0
A12
Text Label 5750 2850 0    50   ~ 0
A13
Wire Wire Line
	5650 2950 5900 2950
Wire Wire Line
	5650 3150 5900 3150
Text Label 5750 2950 0    50   ~ 0
A14
Text Label 5750 3150 0    50   ~ 0
A15
Wire Wire Line
	5650 3350 5900 3350
Wire Wire Line
	5650 3550 5900 3550
Wire Wire Line
	5650 3750 5900 3750
Wire Wire Line
	5650 3950 5900 3950
Wire Wire Line
	5650 4150 5900 4150
Wire Wire Line
	5650 4350 5900 4350
Text Label 5800 3350 0    50   ~ 0
D0
Text Label 5800 3550 0    50   ~ 0
D1
Text Label 5800 3750 0    50   ~ 0
D2
Text Label 5800 3950 0    50   ~ 0
D3
Text Label 5800 4150 0    50   ~ 0
D4
Text Label 5800 4350 0    50   ~ 0
D5
Wire Wire Line
	5650 4550 5900 4550
Wire Wire Line
	5650 4750 5900 4750
Text Label 5800 4550 0    50   ~ 0
D6
Text Label 5800 4750 0    50   ~ 0
D7
Entry Wire Line
	5900 5450 6000 5550
Entry Wire Line
	5900 2150 6000 2250
Entry Wire Line
	5900 2050 6000 2150
Entry Wire Line
	5900 1950 6000 2050
Entry Wire Line
	5900 1850 6000 1950
Wire Wire Line
	5650 1850 5900 1850
Wire Wire Line
	5650 1950 5900 1950
Wire Wire Line
	5650 2050 5900 2050
Wire Wire Line
	5650 2150 5900 2150
Entry Wire Line
	9550 3050 9450 3150
Entry Wire Line
	9550 2950 9450 3050
Wire Wire Line
	7250 3250 8200 3250
Wire Wire Line
	8200 3250 9150 3250
Connection ~ 8200 3250
Wire Wire Line
	9150 3150 9450 3150
Connection ~ 9150 3150
Wire Wire Line
	7250 3150 8200 3150
Wire Wire Line
	8200 3150 9150 3150
Connection ~ 8200 3150
Wire Wire Line
	9150 3050 9450 3050
Connection ~ 9150 3050
Wire Wire Line
	8200 3050 9150 3050
Wire Wire Line
	7250 3050 8200 3050
Connection ~ 8200 3050
Text Label 9300 2950 0    50   ~ 0
AD0
Text Label 9300 3050 0    50   ~ 0
AD1
Text Label 9300 3150 0    50   ~ 0
AD2
Text Label 9300 3250 0    50   ~ 0
AD3
Text Label 5750 1850 0    50   ~ 0
AD3
Text Label 5750 1950 0    50   ~ 0
AD2
Text Label 5750 2050 0    50   ~ 0
AD1
Text Label 5750 2150 0    50   ~ 0
AD0
Connection ~ 13700 6250
Wire Bus Line
	13700 6250 15350 6250
Wire Wire Line
	9150 2950 9450 2950
Wire Wire Line
	7250 2950 8200 2950
Wire Wire Line
	8200 2950 9150 2950
Connection ~ 8200 2950
Connection ~ 9150 2950
$Comp
L power:GND #PWR0106
U 1 1 623F027C
P 9350 5850
F 0 "#PWR0106" H 9350 5600 50  0001 C CNN
F 1 "GND" H 9355 5677 50  0000 C CNN
F 2 "" H 9350 5850 50  0001 C CNN
F 3 "" H 9350 5850 50  0001 C CNN
	1    9350 5850
	1    0    0    -1  
$EndComp
Wire Wire Line
	9150 5750 9350 5750
Wire Wire Line
	9350 5750 9350 5850
Connection ~ 9150 5750
$Comp
L power:GND #PWR0107
U 1 1 62403AEA
P 2650 5850
F 0 "#PWR0107" H 2650 5600 50  0001 C CNN
F 1 "GND" H 2655 5677 50  0000 C CNN
F 2 "" H 2650 5850 50  0001 C CNN
F 3 "" H 2650 5850 50  0001 C CNN
	1    2650 5850
	1    0    0    -1  
$EndComp
Wire Wire Line
	3050 5050 3050 5150
Connection ~ 3050 5150
Wire Wire Line
	3050 5150 3050 5250
Connection ~ 3050 5250
Wire Wire Line
	3050 5250 3050 5350
Connection ~ 3050 5350
Wire Wire Line
	3050 5350 3050 5450
Entry Wire Line
	9550 2450 9450 2550
Entry Wire Line
	9550 2350 9450 2450
Entry Wire Line
	9550 2250 9450 2350
Entry Wire Line
	9550 2150 9450 2250
Entry Wire Line
	9550 2050 9450 2150
$Comp
L power:GND #PWR0108
U 1 1 6255FC57
P 9250 1700
F 0 "#PWR0108" H 9250 1450 50  0001 C CNN
F 1 "GND" H 9255 1527 50  0000 C CNN
F 2 "" H 9250 1700 50  0001 C CNN
F 3 "" H 9250 1700 50  0001 C CNN
	1    9250 1700
	-1   0    0    1   
$EndComp
Wire Wire Line
	9150 1850 9250 1850
Wire Wire Line
	9250 1850 9250 1700
Wire Wire Line
	7250 1850 8200 1850
Wire Wire Line
	8200 1850 9150 1850
Connection ~ 8200 1850
Connection ~ 9150 1850
Wire Wire Line
	7250 1950 8200 1950
Connection ~ 8200 1950
Connection ~ 9150 1950
Wire Wire Line
	8200 1950 9150 1950
Entry Wire Line
	9550 1950 9450 2050
Wire Wire Line
	9400 1950 9400 1500
Wire Wire Line
	9150 1950 9400 1950
$Comp
L power:+5V #PWR0109
U 1 1 6254CA73
P 9400 1500
F 0 "#PWR0109" H 9400 1350 50  0001 C CNN
F 1 "+5V" H 9415 1673 50  0000 C CNN
F 2 "" H 9400 1500 50  0001 C CNN
F 3 "" H 9400 1500 50  0001 C CNN
	1    9400 1500
	1    0    0    -1  
$EndComp
Wire Wire Line
	9150 2050 9450 2050
Wire Wire Line
	9150 2150 9450 2150
Wire Wire Line
	9150 2250 9450 2250
Wire Wire Line
	9150 2350 9450 2350
Wire Wire Line
	9150 2450 9450 2450
Wire Wire Line
	9150 2550 9450 2550
Text Label 9200 2050 0    50   ~ 0
RESET
Text Label 9200 2150 0    50   ~ 0
CLOCK
Text Label 9300 2250 0    50   ~ 0
IRQ
Text Label 9300 2350 0    50   ~ 0
RW
Wire Wire Line
	7250 2050 8200 2050
Wire Wire Line
	8200 2050 9150 2050
Connection ~ 8200 2050
Connection ~ 9150 2050
Wire Wire Line
	9150 2150 8200 2150
Connection ~ 9150 2150
Wire Wire Line
	7250 2150 8200 2150
Connection ~ 8200 2150
Wire Wire Line
	7250 2250 8200 2250
Wire Wire Line
	8200 2250 9150 2250
Connection ~ 8200 2250
Connection ~ 9150 2250
Wire Wire Line
	7250 2350 8200 2350
Wire Wire Line
	8200 2350 9150 2350
Connection ~ 8200 2350
Connection ~ 9150 2350
Wire Wire Line
	7250 2450 8200 2450
Wire Wire Line
	8200 2450 9150 2450
Connection ~ 8200 2450
Connection ~ 9150 2450
Wire Wire Line
	7250 2550 8200 2550
Wire Wire Line
	8200 2550 9150 2550
Connection ~ 8200 2550
Connection ~ 9150 2550
Wire Wire Line
	7250 2650 8200 2650
Wire Wire Line
	8200 2650 9150 2650
Connection ~ 8200 2650
Wire Wire Line
	7250 2750 8200 2750
Wire Wire Line
	8200 2750 9150 2750
Connection ~ 8200 2750
Wire Wire Line
	7250 2850 8200 2850
Wire Wire Line
	8200 2850 9150 2850
Connection ~ 8200 2850
Entry Wire Line
	10950 2800 11050 2900
Entry Wire Line
	10950 3600 11050 3700
Entry Wire Line
	10950 4000 11050 4100
Entry Wire Line
	10950 3100 11050 3200
NoConn ~ 11350 3300
NoConn ~ 11350 3400
NoConn ~ 11350 4800
NoConn ~ 11350 4900
NoConn ~ 11350 5000
Wire Wire Line
	11050 2900 11350 2900
Wire Wire Line
	11050 3200 11350 3200
Wire Wire Line
	11050 3700 11350 3700
Wire Wire Line
	11050 4100 11350 4100
Wire Bus Line
	10950 1950 9550 1950
Text Label 11050 2900 0    50   ~ 0
RESET
Text Label 11050 3200 0    50   ~ 0
CLOCK
Text Label 11050 3700 0    50   ~ 0
IRQ
Text Label 11050 4100 0    50   ~ 0
RW
$Comp
L Device:R R1
U 1 1 62B41474
P 11500 7150
F 0 "R1" H 11570 7196 50  0000 L CNN
F 1 "1KΩ" H 11570 7105 50  0000 L CNN
F 2 "Resistor_THT:R_Axial_DIN0207_L6.3mm_D2.5mm_P10.16mm_Horizontal" V 11430 7150 50  0001 C CNN
F 3 "~" H 11500 7150 50  0001 C CNN
	1    11500 7150
	1    0    0    -1  
$EndComp
$Comp
L Device:C C1
U 1 1 62B4218A
P 11500 7650
F 0 "C1" H 11615 7696 50  0000 L CNN
F 1 "0.1µF" H 11615 7605 50  0000 L CNN
F 2 "Capacitor_THT:C_Disc_D5.0mm_W2.5mm_P5.00mm" H 11538 7500 50  0001 C CNN
F 3 "~" H 11500 7650 50  0001 C CNN
	1    11500 7650
	1    0    0    -1  
$EndComp
$Comp
L Switch:SW_Push SW1
U 1 1 62B42A0B
P 11150 7400
F 0 "SW1" H 11150 7685 50  0000 C CNN
F 1 "Reset" H 11150 7594 50  0000 C CNN
F 2 "Button_Switch_THT:SW_PUSH-12mm" H 11150 7600 50  0001 C CNN
F 3 "~" H 11150 7600 50  0001 C CNN
	1    11150 7400
	1    0    0    -1  
$EndComp
$Comp
L power:GND #PWR0110
U 1 1 62B7C62A
P 11150 8050
F 0 "#PWR0110" H 11150 7800 50  0001 C CNN
F 1 "GND" H 11155 7877 50  0000 C CNN
F 2 "" H 11150 8050 50  0001 C CNN
F 3 "" H 11150 8050 50  0001 C CNN
	1    11150 8050
	1    0    0    -1  
$EndComp
Wire Wire Line
	10950 7400 10800 7400
Wire Wire Line
	10800 7400 10800 7900
Wire Wire Line
	10800 7900 11150 7900
Wire Wire Line
	11500 7900 11500 7800
Wire Wire Line
	11350 7400 11500 7400
Wire Wire Line
	11500 7400 11500 7300
Wire Wire Line
	11500 7400 11500 7500
Connection ~ 11500 7400
Wire Wire Line
	11150 8050 11150 7900
Connection ~ 11150 7900
Wire Wire Line
	11150 7900 11500 7900
$Comp
L power:+5V #PWR0111
U 1 1 62C96A54
P 11500 6850
F 0 "#PWR0111" H 11500 6700 50  0001 C CNN
F 1 "+5V" H 11515 7023 50  0000 C CNN
F 2 "" H 11500 6850 50  0001 C CNN
F 3 "" H 11500 6850 50  0001 C CNN
	1    11500 6850
	1    0    0    -1  
$EndComp
Wire Wire Line
	11500 6850 11500 7000
Wire Wire Line
	11500 7400 11950 7400
Entry Wire Line
	11950 7400 12050 7300
Text Label 11750 7400 0    50   ~ 0
RESET
Entry Wire Line
	15250 4600 15350 4700
Wire Wire Line
	15050 4600 15250 4600
Text Label 15150 4600 0    50   ~ 0
RW
$Comp
L 74xx:74LS00 U4
U 1 1 62DAD573
P 7350 7200
F 0 "U4" H 7350 7525 50  0000 C CNN
F 1 "74LS00" H 7350 7434 50  0000 C CNN
F 2 "Package_DIP:DIP-14_W7.62mm_LongPads" H 7350 7200 50  0001 C CNN
F 3 "http://www.ti.com/lit/gpn/sn74ls00" H 7350 7200 50  0001 C CNN
	1    7350 7200
	1    0    0    -1  
$EndComp
$Comp
L 74xx:74LS00 U4
U 2 1 62DAECC5
P 8650 7850
F 0 "U4" H 8650 8175 50  0000 C CNN
F 1 "74LS00" H 8650 8084 50  0000 C CNN
F 2 "Package_DIP:DIP-14_W7.62mm_LongPads" H 8650 7850 50  0001 C CNN
F 3 "http://www.ti.com/lit/gpn/sn74ls00" H 8650 7850 50  0001 C CNN
	2    8650 7850
	1    0    0    -1  
$EndComp
$Comp
L 74xx:74LS00 U4
U 5 1 62DB1AF5
P 3400 8400
F 0 "U4" H 3630 8446 50  0000 L CNN
F 1 "74LS00" H 3630 8355 50  0000 L CNN
F 2 "Package_DIP:DIP-14_W7.62mm_LongPads" H 3400 8400 50  0001 C CNN
F 3 "http://www.ti.com/lit/gpn/sn74ls00" H 3400 8400 50  0001 C CNN
	5    3400 8400
	1    0    0    -1  
$EndComp
Entry Wire Line
	6000 6850 6100 6950
Entry Wire Line
	6000 7350 6100 7450
Wire Wire Line
	6100 6950 6250 6950
Wire Wire Line
	6100 7450 6250 7450
$Comp
L 74xx:74LS06 U3
U 1 1 62E4972A
P 6550 6950
F 0 "U3" H 6550 7267 50  0000 C CNN
F 1 "74LS06" H 6550 7176 50  0000 C CNN
F 2 "Package_DIP:DIP-14_W7.62mm_LongPads" H 6550 6950 50  0001 C CNN
F 3 "http://www.ti.com/lit/gpn/sn74LS06" H 6550 6950 50  0001 C CNN
	1    6550 6950
	1    0    0    -1  
$EndComp
$Comp
L 74xx:74LS06 U3
U 2 1 62E4C485
P 6550 7450
F 0 "U3" H 6550 7767 50  0000 C CNN
F 1 "74LS06" H 6550 7676 50  0000 C CNN
F 2 "Package_DIP:DIP-14_W7.62mm_LongPads" H 6550 7450 50  0001 C CNN
F 3 "http://www.ti.com/lit/gpn/sn74LS06" H 6550 7450 50  0001 C CNN
	2    6550 7450
	1    0    0    -1  
$EndComp
$Comp
L 74xx:74LS06 U3
U 3 1 62E4DCC9
P 7950 7750
F 0 "U3" H 7950 8067 50  0000 C CNN
F 1 "74LS06" H 7950 7976 50  0000 C CNN
F 2 "Package_DIP:DIP-14_W7.62mm_LongPads" H 7950 7750 50  0001 C CNN
F 3 "http://www.ti.com/lit/gpn/sn74LS06" H 7950 7750 50  0001 C CNN
	3    7950 7750
	1    0    0    -1  
$EndComp
$Comp
L 74xx:74LS06 U3
U 4 1 62E4F634
P 13850 7050
F 0 "U3" H 13850 7367 50  0000 C CNN
F 1 "74LS06" H 13850 7276 50  0000 C CNN
F 2 "Package_DIP:DIP-14_W7.62mm_LongPads" H 13850 7050 50  0001 C CNN
F 3 "http://www.ti.com/lit/gpn/sn74LS06" H 13850 7050 50  0001 C CNN
	4    13850 7050
	1    0    0    -1  
$EndComp
$Comp
L 74xx:74LS06 U3
U 7 1 62E51946
P 2600 8400
F 0 "U3" H 2830 8446 50  0000 L CNN
F 1 "74LS06" H 2830 8355 50  0000 L CNN
F 2 "Package_DIP:DIP-14_W7.62mm_LongPads" H 2600 8400 50  0001 C CNN
F 3 "http://www.ti.com/lit/gpn/sn74LS06" H 2600 8400 50  0001 C CNN
	7    2600 8400
	1    0    0    -1  
$EndComp
Wire Wire Line
	6850 6950 7000 6950
Wire Wire Line
	7000 6950 7000 7100
Wire Wire Line
	7000 7100 7050 7100
Wire Wire Line
	6850 7450 7000 7450
Wire Wire Line
	7000 7450 7000 7300
Wire Wire Line
	7000 7300 7050 7300
Text GLabel 9100 7200 2    50   Input ~ 0
RAM_OE
Wire Wire Line
	7650 7200 7750 7200
Entry Wire Line
	6000 7850 6100 7950
Wire Wire Line
	7750 7200 7750 7500
Wire Wire Line
	7750 7500 7600 7500
Wire Wire Line
	7600 7500 7600 7750
Wire Wire Line
	7600 7750 7650 7750
Connection ~ 7750 7200
Wire Wire Line
	7750 7200 9100 7200
Wire Wire Line
	6100 7950 8350 7950
Wire Wire Line
	8250 7750 8350 7750
Text GLabel 9100 7850 2    50   Input ~ 0
RAM_CS
Wire Wire Line
	8950 7850 9100 7850
Text Label 6100 7950 0    50   ~ 0
CLOCK
Text Label 6100 7450 0    50   ~ 0
A14
Text Label 6100 6950 0    50   ~ 0
A15
Wire Bus Line
	9550 6250 12050 6250
Connection ~ 6000 6250
Text GLabel 15550 4500 2    50   Input ~ 0
RAM_OE
Text GLabel 15550 4300 2    50   Input ~ 0
RAM_CS
Wire Wire Line
	15050 4300 15550 4300
Wire Wire Line
	15050 4500 15550 4500
$Comp
L power:GND #PWR0112
U 1 1 63308EA1
P 3400 9150
F 0 "#PWR0112" H 3400 8900 50  0001 C CNN
F 1 "GND" H 3405 8977 50  0000 C CNN
F 2 "" H 3400 9150 50  0001 C CNN
F 3 "" H 3400 9150 50  0001 C CNN
	1    3400 9150
	1    0    0    -1  
$EndComp
Wire Wire Line
	3400 8900 3400 9050
Wire Wire Line
	3400 9050 2600 9050
Wire Wire Line
	2600 9050 2600 8900
Wire Wire Line
	3400 9150 3400 9050
Connection ~ 2600 9050
Wire Wire Line
	2600 7900 2600 7750
Wire Wire Line
	2600 7750 3400 7750
Wire Wire Line
	3400 7750 3400 7900
$Comp
L power:+5V #PWR0113
U 1 1 6336F2EE
P 3400 7600
F 0 "#PWR0113" H 3400 7450 50  0001 C CNN
F 1 "+5V" H 3415 7773 50  0000 C CNN
F 2 "" H 3400 7600 50  0001 C CNN
F 3 "" H 3400 7600 50  0001 C CNN
	1    3400 7600
	1    0    0    -1  
$EndComp
Wire Wire Line
	3400 7600 3400 7750
Connection ~ 2600 7750
Wire Bus Line
	12050 7300 12050 6250
Connection ~ 12050 6250
Wire Bus Line
	12050 6250 12850 6250
Text Notes 6350 8650 0    79   ~ 0
RAM Address\n0x0000      0000 0000 0000 0000\n0x3FFF      0011 1111 1111 1111
$Comp
L 74xx:74LS06 U3
U 5 1 63440F57
P 13850 7600
F 0 "U3" H 13850 7917 50  0000 C CNN
F 1 "74LS06" H 13850 7826 50  0000 C CNN
F 2 "Package_DIP:DIP-14_W7.62mm_LongPads" H 13850 7600 50  0001 C CNN
F 3 "http://www.ti.com/lit/gpn/sn74LS06" H 13850 7600 50  0001 C CNN
	5    13850 7600
	1    0    0    -1  
$EndComp
$Comp
L 74xx:74LS06 U3
U 6 1 6344216A
P 13850 8150
F 0 "U3" H 13850 8467 50  0000 C CNN
F 1 "74LS06" H 13850 8376 50  0000 C CNN
F 2 "Package_DIP:DIP-14_W7.62mm_LongPads" H 13850 8150 50  0001 C CNN
F 3 "http://www.ti.com/lit/gpn/sn74LS06" H 13850 8150 50  0001 C CNN
	6    13850 8150
	1    0    0    -1  
$EndComp
$Comp
L Device:LED D2
U 1 1 6348B18C
P 14500 7050
F 0 "D2" H 14493 7267 50  0000 C CNN
F 1 "LED_CLOCK" H 14493 7176 50  0000 C CNN
F 2 "LED_THT:LED_D5.0mm_FlatTop" H 14500 7050 50  0001 C CNN
F 3 "~" H 14500 7050 50  0001 C CNN
	1    14500 7050
	1    0    0    -1  
$EndComp
$Comp
L Device:R R3
U 1 1 6348C702
P 15000 7050
F 0 "R3" V 14793 7050 50  0000 C CNN
F 1 "1KΩ" V 14884 7050 50  0000 C CNN
F 2 "Resistor_THT:R_Axial_DIN0207_L6.3mm_D2.5mm_P10.16mm_Horizontal" V 14930 7050 50  0001 C CNN
F 3 "~" H 15000 7050 50  0001 C CNN
	1    15000 7050
	0    1    1    0   
$EndComp
$Comp
L power:+5V #PWR0114
U 1 1 6348D02D
P 15350 6950
F 0 "#PWR0114" H 15350 6800 50  0001 C CNN
F 1 "+5V" H 15365 7123 50  0000 C CNN
F 2 "" H 15350 6950 50  0001 C CNN
F 3 "" H 15350 6950 50  0001 C CNN
	1    15350 6950
	1    0    0    -1  
$EndComp
$Comp
L Device:LED D3
U 1 1 634D26F0
P 14500 7600
F 0 "D3" H 14500 7350 50  0000 C CNN
F 1 "LED_RW" H 14500 7450 50  0000 C CNN
F 2 "LED_THT:LED_D5.0mm_FlatTop" H 14500 7600 50  0001 C CNN
F 3 "~" H 14500 7600 50  0001 C CNN
	1    14500 7600
	-1   0    0    1   
$EndComp
$Comp
L Device:LED D4
U 1 1 634D34FF
P 14500 8150
F 0 "D4" H 14493 8367 50  0000 C CNN
F 1 "LED_IRQ" H 14493 8276 50  0000 C CNN
F 2 "LED_THT:LED_D5.0mm_FlatTop" H 14500 8150 50  0001 C CNN
F 3 "~" H 14500 8150 50  0001 C CNN
	1    14500 8150
	-1   0    0    -1  
$EndComp
Wire Wire Line
	10650 4300 10650 4400
$Comp
L power:+5V #PWR0103
U 1 1 61B1EC11
P 10650 4300
F 0 "#PWR0103" H 10650 4150 50  0001 C CNN
F 1 "+5V" H 10665 4473 50  0000 C CNN
F 2 "" H 10650 4300 50  0001 C CNN
F 3 "" H 10650 4300 50  0001 C CNN
	1    10650 4300
	1    0    0    -1  
$EndComp
$Comp
L power:+5V #PWR0115
U 1 1 63609442
P 11250 3800
F 0 "#PWR0115" H 11250 3650 50  0001 C CNN
F 1 "+5V" H 11265 3973 50  0000 C CNN
F 2 "" H 11250 3800 50  0001 C CNN
F 3 "" H 11250 3800 50  0001 C CNN
	1    11250 3800
	0    -1   -1   0   
$EndComp
Wire Wire Line
	11250 3800 11350 3800
Wire Wire Line
	14150 7600 14350 7600
Wire Wire Line
	14150 8150 14350 8150
Wire Wire Line
	14150 7050 14350 7050
$Comp
L Device:R R4
U 1 1 636B9C64
P 15000 7600
F 0 "R4" V 14793 7600 50  0000 C CNN
F 1 "1KΩ" V 14884 7600 50  0000 C CNN
F 2 "Resistor_THT:R_Axial_DIN0207_L6.3mm_D2.5mm_P10.16mm_Horizontal" V 14930 7600 50  0001 C CNN
F 3 "~" H 15000 7600 50  0001 C CNN
	1    15000 7600
	0    1    1    0   
$EndComp
$Comp
L Device:R R5
U 1 1 636BA126
P 15000 8150
F 0 "R5" V 14793 8150 50  0000 C CNN
F 1 "1KΩ" V 14884 8150 50  0000 C CNN
F 2 "Resistor_THT:R_Axial_DIN0207_L6.3mm_D2.5mm_P10.16mm_Horizontal" V 14930 8150 50  0001 C CNN
F 3 "~" H 15000 8150 50  0001 C CNN
	1    15000 8150
	0    1    1    0   
$EndComp
Wire Wire Line
	14650 7600 14850 7600
Wire Wire Line
	14650 7050 14850 7050
Wire Wire Line
	15150 7050 15350 7050
Wire Wire Line
	15350 7050 15350 6950
$Comp
L power:GND #PWR0116
U 1 1 63726A7F
P 15350 8300
F 0 "#PWR0116" H 15350 8050 50  0001 C CNN
F 1 "GND" H 15355 8127 50  0000 C CNN
F 2 "" H 15350 8300 50  0001 C CNN
F 3 "" H 15350 8300 50  0001 C CNN
	1    15350 8300
	1    0    0    -1  
$EndComp
Wire Wire Line
	15150 8150 15350 8150
Wire Wire Line
	15350 8150 15350 8300
Wire Wire Line
	15150 7600 15350 7600
Wire Wire Line
	15350 7600 15350 8150
Connection ~ 15350 8150
Wire Wire Line
	14650 8150 14850 8150
Entry Wire Line
	13200 6950 13300 7050
Entry Wire Line
	13200 7500 13300 7600
Entry Wire Line
	13200 8050 13300 8150
Wire Wire Line
	13300 7050 13550 7050
Wire Wire Line
	13300 7600 13550 7600
Wire Wire Line
	13300 8150 13550 8150
Connection ~ 13200 6250
Wire Bus Line
	13200 6250 13700 6250
Text Label 13300 7050 0    50   ~ 0
CLOCK
Text Label 13300 7600 0    50   ~ 0
RW
Text Label 13300 8150 0    50   ~ 0
IRQ
$Comp
L Device:LED D1
U 1 1 63913493
P 1850 8100
F 0 "D1" V 1889 8180 50  0000 L CNN
F 1 "LED_POWER" V 1798 8180 50  0000 L CNN
F 2 "LED_THT:LED_D5.0mm_FlatTop" H 1850 8100 50  0001 C CNN
F 3 "~" H 1850 8100 50  0001 C CNN
	1    1850 8100
	0    1    -1   0   
$EndComp
$Comp
L Device:R R2
U 1 1 63913499
P 1850 8600
F 0 "R2" V 1643 8600 50  0000 C CNN
F 1 "1KΩ" V 1734 8600 50  0000 C CNN
F 2 "Resistor_THT:R_Axial_DIN0207_L6.3mm_D2.5mm_P10.16mm_Horizontal" V 1780 8600 50  0001 C CNN
F 3 "~" H 1850 8600 50  0001 C CNN
	1    1850 8600
	-1   0    0    1   
$EndComp
Wire Wire Line
	1850 8250 1850 8450
Wire Wire Line
	2600 7750 1850 7750
Wire Wire Line
	1850 7750 1850 7950
Wire Wire Line
	1850 8750 1850 9050
Wire Wire Line
	1850 9050 2600 9050
Entry Wire Line
	5900 2350 6000 2450
Entry Wire Line
	5900 2450 6000 2550
Entry Wire Line
	5900 2550 6000 2650
Wire Wire Line
	5650 2350 5900 2350
Wire Wire Line
	5650 2450 5900 2450
Wire Wire Line
	5650 2550 5900 2550
Text Label 5650 2350 0    50   ~ 0
PROTO
Text Label 5750 2450 0    50   ~ 0
RW
Text Label 5750 1650 0    50   ~ 0
IRQ
Text Label 5650 2550 0    50   ~ 0
CLOCK
Entry Wire Line
	5900 2750 6000 2850
Wire Wire Line
	5650 2750 5900 2750
Text Label 5650 2750 0    50   ~ 0
RESET
Text Label 9200 2450 0    50   ~ 0
PROTO
Entry Wire Line
	9550 2850 9450 2950
$Comp
L Device:C C3
U 1 1 61D35E48
P 4650 8400
F 0 "C3" H 4765 8446 50  0000 L CNN
F 1 "0.1µF" H 4765 8355 50  0000 L CNN
F 2 "Capacitor_THT:C_Disc_D5.0mm_W2.5mm_P5.00mm" H 4688 8250 50  0001 C CNN
F 3 "~" H 4650 8400 50  0001 C CNN
	1    4650 8400
	1    0    0    -1  
$EndComp
$Comp
L Device:C C2
U 1 1 61D36C89
P 4150 8400
F 0 "C2" H 4265 8446 50  0000 L CNN
F 1 "0.1µF" H 4265 8355 50  0000 L CNN
F 2 "Capacitor_THT:C_Disc_D5.0mm_W2.5mm_P5.00mm" H 4188 8250 50  0001 C CNN
F 3 "~" H 4150 8400 50  0001 C CNN
	1    4150 8400
	1    0    0    -1  
$EndComp
Wire Wire Line
	3400 7750 4150 7750
Wire Wire Line
	4650 7750 4650 8250
Connection ~ 3400 7750
Connection ~ 4150 7750
Wire Wire Line
	4150 7750 4650 7750
Wire Wire Line
	3400 9050 4150 9050
Wire Wire Line
	4650 9050 4650 8550
Connection ~ 3400 9050
Wire Wire Line
	4150 8550 4150 9050
Connection ~ 4150 9050
Wire Wire Line
	4150 9050 4650 9050
Wire Wire Line
	4150 7750 4150 8250
$Comp
L 74xx:74LS00 U4
U 3 1 61FB2B6D
P 10300 9400
F 0 "U4" H 10300 9725 50  0000 C CNN
F 1 "74LS00" H 10300 9634 50  0000 C CNN
F 2 "Package_DIP:DIP-14_W7.62mm_LongPads" H 10300 9400 50  0001 C CNN
F 3 "http://www.ti.com/lit/gpn/sn74ls00" H 10300 9400 50  0001 C CNN
	3    10300 9400
	1    0    0    -1  
$EndComp
$Comp
L 74xx:74LS00 U4
U 4 1 61FB404B
P 10300 8850
F 0 "U4" H 10300 9175 50  0000 C CNN
F 1 "74LS00" H 10300 9084 50  0000 C CNN
F 2 "Package_DIP:DIP-14_W7.62mm_LongPads" H 10300 8850 50  0001 C CNN
F 3 "http://www.ti.com/lit/gpn/sn74ls00" H 10300 8850 50  0001 C CNN
	4    10300 8850
	1    0    0    -1  
$EndComp
Wire Wire Line
	10000 9300 9850 9300
Wire Wire Line
	9850 9300 9850 9500
Wire Wire Line
	9850 9500 10000 9500
Wire Wire Line
	10000 8750 9850 8750
Wire Wire Line
	9850 8750 9850 8950
Wire Wire Line
	9850 8950 10000 8950
$Comp
L power:GND #PWR0117
U 1 1 6200B55C
P 9850 9750
F 0 "#PWR0117" H 9850 9500 50  0001 C CNN
F 1 "GND" H 9855 9577 50  0000 C CNN
F 2 "" H 9850 9750 50  0001 C CNN
F 3 "" H 9850 9750 50  0001 C CNN
	1    9850 9750
	1    0    0    -1  
$EndComp
Wire Wire Line
	9850 9500 9850 9750
Connection ~ 9850 9500
Wire Wire Line
	9850 8950 9850 9300
Connection ~ 9850 8950
Connection ~ 9850 9300
NoConn ~ 10600 8850
NoConn ~ 10600 9400
$Comp
L Connector:Jack-DC J4
U 1 1 6213D8E1
P 1050 8350
F 0 "J4" H 1107 8675 50  0000 C CNN
F 1 "Jack-DC" H 1107 8584 50  0000 C CNN
F 2 "Connector_BarrelJack:BarrelJack_Horizontal" H 1100 8310 50  0001 C CNN
F 3 "~" H 1100 8310 50  0001 C CNN
	1    1050 8350
	1    0    0    -1  
$EndComp
Wire Wire Line
	1350 8250 1350 7750
Wire Wire Line
	1350 7750 1850 7750
Connection ~ 1850 7750
Wire Wire Line
	1350 8450 1350 9050
Wire Wire Line
	1350 9050 1850 9050
Connection ~ 1850 9050
$Comp
L Connector_Generic:Conn_01x08 J5
U 1 1 621AA961
P 2350 3250
F 0 "J5" V 2600 3100 50  0000 C CNN
F 1 "Analog0" V 2500 3100 50  0000 C CNN
F 2 "Connector_PinSocket_2.54mm:PinSocket_1x08_P2.54mm_Vertical" H 2350 3250 50  0001 C CNN
F 3 "~" H 2350 3250 50  0001 C CNN
	1    2350 3250
	-1   0    0    -1  
$EndComp
$Comp
L Connector_Generic:Conn_01x08 J6
U 1 1 621DC1FB
P 2350 4050
F 0 "J6" V 2600 4050 50  0000 C CNN
F 1 "Analog1" V 2500 4050 50  0000 C CNN
F 2 "Connector_PinSocket_2.54mm:PinSocket_1x08_P2.54mm_Vertical" H 2350 4050 50  0001 C CNN
F 3 "~" H 2350 4050 50  0001 C CNN
	1    2350 4050
	-1   0    0    -1  
$EndComp
Wire Wire Line
	2550 2950 3050 2950
Wire Wire Line
	3050 3050 2550 3050
Wire Wire Line
	2550 3150 3050 3150
Wire Wire Line
	2550 3250 3050 3250
Wire Wire Line
	2550 3350 3050 3350
Wire Wire Line
	2550 3450 3050 3450
Wire Wire Line
	2550 3550 3050 3550
Wire Wire Line
	3050 3650 2550 3650
Wire Wire Line
	2550 3750 3050 3750
Wire Wire Line
	3050 3850 2550 3850
Wire Wire Line
	2550 3950 3050 3950
Wire Wire Line
	3050 4050 2550 4050
Wire Wire Line
	2550 4150 3050 4150
Wire Wire Line
	3050 4250 2550 4250
Wire Wire Line
	2550 4350 3050 4350
Wire Wire Line
	3050 4450 2550 4450
$Comp
L Connector_Generic:Conn_01x04 J8
U 1 1 624E120C
P 5300 7850
F 0 "J8" H 5300 7450 50  0000 L CNN
F 1 "+5V" H 5100 7550 50  0000 L CNN
F 2 "Connector_PinSocket_2.54mm:PinSocket_1x04_P2.54mm_Vertical" H 5300 7850 50  0001 C CNN
F 3 "~" H 5300 7850 50  0001 C CNN
	1    5300 7850
	1    0    0    -1  
$EndComp
$Comp
L Connector_Generic:Conn_01x04 J9
U 1 1 624E4163
P 5300 8850
F 0 "J9" H 5300 9150 50  0000 L CNN
F 1 "GND" H 5100 9050 50  0000 L CNN
F 2 "Connector_PinSocket_2.54mm:PinSocket_1x04_P2.54mm_Vertical" H 5300 8850 50  0001 C CNN
F 3 "~" H 5300 8850 50  0001 C CNN
	1    5300 8850
	1    0    0    -1  
$EndComp
Wire Wire Line
	4650 7750 5100 7750
Connection ~ 4650 7750
Wire Wire Line
	5100 7750 5100 7850
Connection ~ 5100 7750
Wire Wire Line
	5100 7850 5100 7950
Connection ~ 5100 7850
Wire Wire Line
	5100 7950 5100 8050
Connection ~ 5100 7950
Wire Wire Line
	5100 8750 5100 8850
Wire Wire Line
	5100 8850 5100 8950
Connection ~ 5100 8850
Wire Wire Line
	5100 8950 5100 9050
Connection ~ 5100 8950
Wire Wire Line
	4650 9050 5100 9050
Connection ~ 4650 9050
Connection ~ 5100 9050
Entry Wire Line
	2400 2450 2500 2550
Entry Wire Line
	2400 2350 2500 2450
Wire Wire Line
	2500 2450 3050 2450
Wire Wire Line
	2500 2550 3050 2550
Text Label 2500 2450 0    50   ~ 0
SDA
Text Label 2500 2550 0    50   ~ 0
SCL
Wire Bus Line
	6000 950  2400 950 
Entry Wire Line
	9450 2750 9550 2650
Entry Wire Line
	9450 2650 9550 2550
Wire Wire Line
	9150 2650 9450 2650
Connection ~ 9150 2650
Wire Wire Line
	9150 2750 9450 2750
Connection ~ 9150 2750
Text Label 9300 2650 0    50   ~ 0
SDA
Text Label 9300 2550 0    50   ~ 0
SCL
Entry Wire Line
	9450 2850 9550 2750
Wire Wire Line
	9150 2850 9450 2850
Connection ~ 9150 2850
Text Label 9350 2750 0    50   ~ 0
TX
Text Label 9350 2850 0    50   ~ 0
RX
Entry Wire Line
	2400 1550 2500 1650
Entry Wire Line
	2400 1650 2500 1750
Wire Wire Line
	2500 1650 3050 1650
Wire Wire Line
	2500 1750 3050 1750
Text Label 2500 1750 0    50   ~ 0
TX
Text Label 2500 1650 0    50   ~ 0
RX
$Comp
L power:PWR_FLAG #FLG0101
U 1 1 62E6191E
P 1350 7600
F 0 "#FLG0101" H 1350 7675 50  0001 C CNN
F 1 "PWR_FLAG" H 1350 7773 50  0000 C CNN
F 2 "" H 1350 7600 50  0001 C CNN
F 3 "~" H 1350 7600 50  0001 C CNN
	1    1350 7600
	1    0    0    -1  
$EndComp
$Comp
L power:PWR_FLAG #FLG0102
U 1 1 62E62E68
P 1350 9250
F 0 "#FLG0102" H 1350 9325 50  0001 C CNN
F 1 "PWR_FLAG" H 1350 9423 50  0000 C CNN
F 2 "" H 1350 9250 50  0001 C CNN
F 3 "~" H 1350 9250 50  0001 C CNN
	1    1350 9250
	-1   0    0    1   
$EndComp
Wire Wire Line
	1350 9050 1350 9250
Connection ~ 1350 9050
Wire Wire Line
	1350 7600 1350 7750
Connection ~ 1350 7750
NoConn ~ 4600 1200
NoConn ~ 4500 1200
NoConn ~ 4400 1200
NoConn ~ 4300 1200
NoConn ~ 4200 1200
NoConn ~ 4100 1200
NoConn ~ 3050 1850
NoConn ~ 3050 1950
NoConn ~ 3050 2050
NoConn ~ 3050 2150
NoConn ~ 3050 2250
NoConn ~ 3050 2350
NoConn ~ 3050 2650
NoConn ~ 3050 2750
NoConn ~ 3050 5750
NoConn ~ 3050 5850
NoConn ~ 5650 5550
NoConn ~ 5650 5350
NoConn ~ 5650 5650
NoConn ~ 5650 5750
NoConn ~ 5650 5850
NoConn ~ 5650 5950
NoConn ~ 5650 5150
NoConn ~ 5650 4950
NoConn ~ 3050 4550
$Comp
L Connector_Generic:Conn_01x07 J7
U 1 1 61C34C09
P 2350 5150
F 0 "J7" H 2430 5192 50  0000 L CNN
F 1 "Conn_01x07" H 2430 5101 50  0000 L CNN
F 2 "Connector_PinSocket_2.54mm:PinSocket_1x07_P2.54mm_Vertical" H 2350 5150 50  0001 C CNN
F 3 "~" H 2350 5150 50  0001 C CNN
	1    2350 5150
	-1   0    0    -1  
$EndComp
Wire Wire Line
	3050 4850 2550 4850
Wire Wire Line
	3050 4750 2700 4750
Wire Wire Line
	2700 4750 2700 4950
Wire Wire Line
	2700 4950 2550 4950
Wire Wire Line
	2550 5050 2850 5050
Wire Wire Line
	2850 5050 2850 5550
Wire Wire Line
	2850 5550 3050 5550
Wire Wire Line
	3050 5650 2800 5650
Wire Wire Line
	2800 5650 2800 5150
Wire Wire Line
	2800 5150 2550 5150
Wire Wire Line
	3050 5250 2650 5250
Wire Wire Line
	2550 5250 2550 5350
Connection ~ 2550 5250
Wire Wire Line
	3050 5950 2750 5950
Wire Wire Line
	2750 5950 2750 5450
Wire Wire Line
	2750 5450 2550 5450
Wire Wire Line
	2650 5250 2650 5850
Connection ~ 2650 5250
Wire Wire Line
	2650 5250 2550 5250
Entry Wire Line
	5900 1650 6000 1750
Entry Wire Line
	5900 1750 6000 1850
Wire Wire Line
	5650 1650 5900 1650
Wire Wire Line
	5650 1750 5900 1750
Text Label 5650 1750 0    50   ~ 0
CLOCK
Wire Bus Line
	6000 6250 6000 7850
Wire Bus Line
	13200 6250 13200 8050
Wire Bus Line
	2400 950  2400 2450
Wire Bus Line
	10950 1950 10950 4000
Wire Bus Line
	15350 3500 15350 6250
Wire Bus Line
	13700 3300 13700 6250
Wire Bus Line
	12850 2800 12850 6250
Wire Bus Line
	6000 950  6000 6250
Wire Bus Line
	9550 1950 9550 6250
$EndSCHEMATC
