EESchema Schematic File Version 4
EELAYER 30 0
EELAYER END
$Descr A4 11693 8268
encoding utf-8
Sheet 1 1
Title ""
Date ""
Rev ""
Comp ""
Comment1 ""
Comment2 ""
Comment3 ""
Comment4 ""
$EndDescr
$Comp
L 6502:W65C22SxP U2
U 1 1 61CB385F
P 9200 4150
F 0 "U2" H 9500 5600 50  0000 C CNN
F 1 "W65C22SxP" H 9550 5500 50  0000 C CIB
F 2 "Package_DIP:DIP-40_W15.24mm_LongPads" H 9200 4300 50  0001 C CNN
F 3 "http://www.westerndesigncenter.com/wdc/documentation/w65c22.pdf" H 9200 4300 50  0001 C CNN
	1    9200 4150
	1    0    0    -1  
$EndComp
$Comp
L Connector_Generic:Conn_01x40 J1
U 1 1 61CB4B1D
P 1800 3550
F 0 "J1" H 1880 3542 50  0000 L CNN
F 1 "ALT6502_Bus" H 1880 3451 50  0000 L CNN
F 2 "Connector_PinSocket_2.54mm:PinSocket_1x40_P2.54mm_Vertical" H 1800 3550 50  0001 C CNN
F 3 "~" H 1800 3550 50  0001 C CNN
	1    1800 3550
	-1   0    0    -1  
$EndComp
$Comp
L 74xx:74LS85 U1
U 1 1 61CBC22A
P 5800 3150
F 0 "U1" H 6050 3850 50  0000 C CNN
F 1 "74LS85" H 6050 3750 50  0000 C CNN
F 2 "Package_DIP:DIP-16_W7.62mm_LongPads" H 5800 3150 50  0001 C CNN
F 3 "http://www.ti.com/lit/gpn/sn74LS85" H 5800 3150 50  0001 C CNN
	1    5800 3150
	1    0    0    -1  
$EndComp
$Comp
L Switch:SW_DIP_x04 SW1
U 1 1 61CBD57D
P 3700 2950
F 0 "SW1" H 3700 3417 50  0000 C CNN
F 1 "SW_DIP_x04" H 3700 3326 50  0000 C CNN
F 2 "Button_Switch_THT:SW_DIP_SPSTx04_Slide_9.78x12.34mm_W7.62mm_P2.54mm" H 3700 2950 50  0001 C CNN
F 3 "~" H 3700 2950 50  0001 C CNN
	1    3700 2950
	1    0    0    -1  
$EndComp
$Comp
L Device:R R1
U 1 1 61CC778F
P 4200 1950
F 0 "R1" H 4270 1996 50  0000 L CNN
F 1 "3KΩ" H 4270 1905 50  0000 L CNN
F 2 "Resistor_THT:R_Axial_DIN0207_L6.3mm_D2.5mm_P10.16mm_Horizontal" V 4130 1950 50  0001 C CNN
F 3 "~" H 4200 1950 50  0001 C CNN
	1    4200 1950
	1    0    0    -1  
$EndComp
$Comp
L Device:R R2
U 1 1 61CC8251
P 4500 1950
F 0 "R2" H 4570 1996 50  0000 L CNN
F 1 "3KΩ" H 4570 1905 50  0000 L CNN
F 2 "Resistor_THT:R_Axial_DIN0207_L6.3mm_D2.5mm_P10.16mm_Horizontal" V 4430 1950 50  0001 C CNN
F 3 "~" H 4500 1950 50  0001 C CNN
	1    4500 1950
	1    0    0    -1  
$EndComp
$Comp
L Device:R R3
U 1 1 61CC851D
P 4800 1950
F 0 "R3" H 4870 1996 50  0000 L CNN
F 1 "3KΩ" H 4870 1905 50  0000 L CNN
F 2 "Resistor_THT:R_Axial_DIN0207_L6.3mm_D2.5mm_P10.16mm_Horizontal" V 4730 1950 50  0001 C CNN
F 3 "~" H 4800 1950 50  0001 C CNN
	1    4800 1950
	1    0    0    -1  
$EndComp
$Comp
L Device:R R4
U 1 1 61CC8A5D
P 5100 1950
F 0 "R4" H 5170 1996 50  0000 L CNN
F 1 "3KΩ" H 5170 1905 50  0000 L CNN
F 2 "Resistor_THT:R_Axial_DIN0207_L6.3mm_D2.5mm_P10.16mm_Horizontal" V 5030 1950 50  0001 C CNN
F 3 "~" H 5100 1950 50  0001 C CNN
	1    5100 1950
	1    0    0    -1  
$EndComp
Wire Wire Line
	4000 2750 4200 2750
Wire Wire Line
	4000 2850 4500 2850
Wire Wire Line
	4000 2950 4800 2950
Wire Wire Line
	4000 3050 5100 3050
Wire Wire Line
	4200 2100 4200 2750
Connection ~ 4200 2750
Wire Wire Line
	4200 2750 5300 2750
Wire Wire Line
	4500 2100 4500 2850
Connection ~ 4500 2850
Wire Wire Line
	4500 2850 5300 2850
Wire Wire Line
	4800 2100 4800 2950
Connection ~ 4800 2950
Wire Wire Line
	4800 2950 5300 2950
Wire Wire Line
	5100 2100 5100 3050
Connection ~ 5100 3050
Wire Wire Line
	5100 3050 5300 3050
$Comp
L power:GND #PWR0101
U 1 1 61CCBA60
P 3850 1850
F 0 "#PWR0101" H 3850 1600 50  0001 C CNN
F 1 "GND" H 3855 1677 50  0000 C CNN
F 2 "" H 3850 1850 50  0001 C CNN
F 3 "" H 3850 1850 50  0001 C CNN
	1    3850 1850
	1    0    0    -1  
$EndComp
Wire Wire Line
	3850 1850 3850 1550
Wire Wire Line
	3850 1550 4200 1550
Wire Wire Line
	5100 1550 5100 1800
Wire Wire Line
	4800 1800 4800 1550
Connection ~ 4800 1550
Wire Wire Line
	4800 1550 5100 1550
Wire Wire Line
	4500 1800 4500 1550
Connection ~ 4500 1550
Wire Wire Line
	4500 1550 4800 1550
Wire Wire Line
	4200 1800 4200 1550
Connection ~ 4200 1550
Wire Wire Line
	4200 1550 4500 1550
$Comp
L power:+5V #PWR0102
U 1 1 61CCDD2A
P 3200 2350
F 0 "#PWR0102" H 3200 2200 50  0001 C CNN
F 1 "+5V" H 3215 2523 50  0000 C CNN
F 2 "" H 3200 2350 50  0001 C CNN
F 3 "" H 3200 2350 50  0001 C CNN
	1    3200 2350
	1    0    0    -1  
$EndComp
Wire Wire Line
	3200 2350 3200 2750
Wire Wire Line
	3200 3050 3400 3050
Wire Wire Line
	3400 2950 3200 2950
Connection ~ 3200 2950
Wire Wire Line
	3200 2950 3200 3050
Wire Wire Line
	3400 2850 3200 2850
Connection ~ 3200 2850
Wire Wire Line
	3200 2850 3200 2950
Wire Wire Line
	3400 2750 3200 2750
Connection ~ 3200 2750
Wire Wire Line
	3200 2750 3200 2850
$Comp
L power:GND #PWR0103
U 1 1 61CD94BE
P 5800 4050
F 0 "#PWR0103" H 5800 3800 50  0001 C CNN
F 1 "GND" H 5805 3877 50  0000 C CNN
F 2 "" H 5800 4050 50  0001 C CNN
F 3 "" H 5800 4050 50  0001 C CNN
	1    5800 4050
	1    0    0    -1  
$EndComp
Wire Wire Line
	5800 3850 5800 4050
$Comp
L power:GND #PWR0104
U 1 1 61CDA80B
P 9200 5800
F 0 "#PWR0104" H 9200 5550 50  0001 C CNN
F 1 "GND" H 9205 5627 50  0000 C CNN
F 2 "" H 9200 5800 50  0001 C CNN
F 3 "" H 9200 5800 50  0001 C CNN
	1    9200 5800
	1    0    0    -1  
$EndComp
Wire Wire Line
	9200 5600 9200 5800
$Comp
L power:+5V #PWR0105
U 1 1 61CDBF04
P 5800 2250
F 0 "#PWR0105" H 5800 2100 50  0001 C CNN
F 1 "+5V" H 5815 2423 50  0000 C CNN
F 2 "" H 5800 2250 50  0001 C CNN
F 3 "" H 5800 2250 50  0001 C CNN
	1    5800 2250
	1    0    0    -1  
$EndComp
Wire Wire Line
	5800 2250 5800 2450
$Comp
L power:+5V #PWR0106
U 1 1 61CDD3AD
P 9200 2500
F 0 "#PWR0106" H 9200 2350 50  0001 C CNN
F 1 "+5V" H 9215 2673 50  0000 C CNN
F 2 "" H 9200 2500 50  0001 C CNN
F 3 "" H 9200 2500 50  0001 C CNN
	1    9200 2500
	1    0    0    -1  
$EndComp
Wire Wire Line
	9200 2500 9200 2700
Entry Wire Line
	2300 2750 2400 2850
Entry Wire Line
	2300 2850 2400 2950
Entry Wire Line
	2300 2950 2400 3050
Entry Wire Line
	2300 3050 2400 3150
Entry Wire Line
	2300 2150 2400 2250
Entry Wire Line
	2300 1950 2400 2050
Wire Wire Line
	2000 1950 2300 1950
Wire Wire Line
	2000 2150 2300 2150
Wire Wire Line
	2000 2750 2300 2750
Wire Wire Line
	2000 2850 2300 2850
Wire Wire Line
	2000 2950 2300 2950
Wire Wire Line
	2000 3050 2300 3050
Text Label 2050 1950 0    50   ~ 0
CLOCK
Text Label 2050 2150 0    50   ~ 0
RW
Text Label 2050 2750 0    50   ~ 0
AD0
Text Label 2050 2850 0    50   ~ 0
AD1
Text Label 2050 2950 0    50   ~ 0
AD2
Text Label 2050 3050 0    50   ~ 0
AD3
Entry Wire Line
	2300 1850 2400 1950
Wire Wire Line
	2000 1850 2300 1850
Text Label 2050 1850 0    50   ~ 0
RESET
Entry Wire Line
	8250 4650 8350 4550
Entry Wire Line
	8250 4750 8350 4650
Entry Wire Line
	8250 4850 8350 4750
Entry Wire Line
	8250 4950 8350 4850
Entry Wire Line
	8250 5050 8350 4950
Entry Wire Line
	8250 5150 8350 5050
Entry Wire Line
	8250 5250 8350 5150
Entry Wire Line
	8250 5350 8350 5250
Entry Wire Line
	8250 4450 8350 4350
Entry Wire Line
	8250 3450 8350 3350
Entry Wire Line
	8250 3950 8350 3850
Entry Wire Line
	8250 4050 8350 3950
Entry Wire Line
	8250 4150 8350 4050
Entry Wire Line
	8250 4250 8350 4150
Entry Wire Line
	8250 3150 8350 3050
Entry Wire Line
	8250 3250 8350 3150
Wire Wire Line
	8350 3050 8600 3050
Wire Wire Line
	8350 3150 8600 3150
Wire Wire Line
	8350 3350 8600 3350
Wire Wire Line
	8350 3850 8600 3850
Wire Wire Line
	8350 3950 8600 3950
Wire Wire Line
	8350 4050 8600 4050
Wire Wire Line
	8350 4150 8600 4150
Wire Wire Line
	8350 4350 8600 4350
Wire Wire Line
	8350 4550 8600 4550
Wire Wire Line
	8350 4650 8600 4650
Wire Wire Line
	8350 4750 8600 4750
Wire Wire Line
	8350 4850 8600 4850
Wire Wire Line
	8350 4950 8600 4950
Wire Wire Line
	8350 5050 8600 5050
Wire Wire Line
	8350 5150 8600 5150
Wire Wire Line
	8350 5250 8600 5250
Text Label 8350 4350 0    50   ~ 0
RW
Text Label 8350 3350 0    50   ~ 0
IRQ
Text Label 8350 3150 0    50   ~ 0
CLOCK
Text Label 8350 3050 0    50   ~ 0
RESET
Text Label 8350 4550 0    50   ~ 0
D0
Text Label 8350 4650 0    50   ~ 0
D1
Text Label 8350 4750 0    50   ~ 0
D2
Text Label 8350 4850 0    50   ~ 0
D3
Text Label 8350 4950 0    50   ~ 0
D4
Text Label 8350 5050 0    50   ~ 0
D5
Text Label 8350 5150 0    50   ~ 0
D6
Text Label 8350 5250 0    50   ~ 0
D7
Text Label 8350 3850 0    50   ~ 0
A0
Text Label 8350 3950 0    50   ~ 0
A1
Text Label 8350 4050 0    50   ~ 0
A2
Text Label 8350 4150 0    50   ~ 0
A3
Wire Bus Line
	2400 5650 4950 5650
NoConn ~ 6300 3350
NoConn ~ 6300 3450
Entry Wire Line
	4950 3650 5050 3550
Entry Wire Line
	4950 3550 5050 3450
Entry Wire Line
	4950 3450 5050 3350
Entry Wire Line
	4950 3350 5050 3250
Wire Wire Line
	5050 3250 5300 3250
Wire Wire Line
	5050 3350 5300 3350
Wire Wire Line
	5050 3450 5300 3450
Wire Wire Line
	5050 3550 5300 3550
Text Label 5050 3250 0    50   ~ 0
AD3
Text Label 5050 3350 0    50   ~ 0
AD2
Text Label 5050 3450 0    50   ~ 0
AD1
Text Label 5050 3550 0    50   ~ 0
AD0
Connection ~ 4950 5650
Wire Bus Line
	4950 5650 8250 5650
$Comp
L power:+5V #PWR0107
U 1 1 61D1FDEA
P 6550 2250
F 0 "#PWR0107" H 6550 2100 50  0001 C CNN
F 1 "+5V" H 6565 2423 50  0000 C CNN
F 2 "" H 6550 2250 50  0001 C CNN
F 3 "" H 6550 2250 50  0001 C CNN
	1    6550 2250
	1    0    0    -1  
$EndComp
Wire Wire Line
	6550 2250 6550 2950
Wire Wire Line
	6550 2950 6300 2950
$Comp
L power:GND #PWR0108
U 1 1 61D21D0F
P 6400 2250
F 0 "#PWR0108" H 6400 2000 50  0001 C CNN
F 1 "GND" H 6405 2077 50  0000 C CNN
F 2 "" H 6400 2250 50  0001 C CNN
F 3 "" H 6400 2250 50  0001 C CNN
	1    6400 2250
	-1   0    0    1   
$EndComp
Wire Wire Line
	6400 2250 6400 2750
Wire Wire Line
	6400 2850 6300 2850
Wire Wire Line
	6300 2750 6400 2750
Connection ~ 6400 2750
Wire Wire Line
	6400 2750 6400 2850
$Comp
L power:GND #PWR0109
U 1 1 61D294A9
P 2200 5700
F 0 "#PWR0109" H 2200 5450 50  0001 C CNN
F 1 "GND" H 2205 5527 50  0000 C CNN
F 2 "" H 2200 5700 50  0001 C CNN
F 3 "" H 2200 5700 50  0001 C CNN
	1    2200 5700
	1    0    0    -1  
$EndComp
$Comp
L power:GND #PWR0110
U 1 1 61D2ABC4
P 2250 1450
F 0 "#PWR0110" H 2250 1200 50  0001 C CNN
F 1 "GND" H 2255 1277 50  0000 C CNN
F 2 "" H 2250 1450 50  0001 C CNN
F 3 "" H 2250 1450 50  0001 C CNN
	1    2250 1450
	-1   0    0    1   
$EndComp
Wire Wire Line
	2000 1650 2250 1650
Wire Wire Line
	2250 1650 2250 1550
$Comp
L power:+5V #PWR0111
U 1 1 61D2E106
P 2450 1450
F 0 "#PWR0111" H 2450 1300 50  0001 C CNN
F 1 "+5V" H 2465 1623 50  0000 C CNN
F 2 "" H 2450 1450 50  0001 C CNN
F 3 "" H 2450 1450 50  0001 C CNN
	1    2450 1450
	1    0    0    -1  
$EndComp
Wire Wire Line
	2000 1750 2450 1750
Wire Wire Line
	2450 1750 2450 1550
$Comp
L power:PWR_FLAG #FLG0101
U 1 1 61D320E7
P 2700 1250
F 0 "#FLG0101" H 2700 1325 50  0001 C CNN
F 1 "PWR_FLAG" H 2700 1423 50  0000 C CNN
F 2 "" H 2700 1250 50  0001 C CNN
F 3 "~" H 2700 1250 50  0001 C CNN
	1    2700 1250
	1    0    0    -1  
$EndComp
$Comp
L power:PWR_FLAG #FLG0102
U 1 1 61D33052
P 2000 1250
F 0 "#FLG0102" H 2000 1325 50  0001 C CNN
F 1 "PWR_FLAG" H 2000 1423 50  0000 C CNN
F 2 "" H 2000 1250 50  0001 C CNN
F 3 "~" H 2000 1250 50  0001 C CNN
	1    2000 1250
	1    0    0    -1  
$EndComp
Wire Wire Line
	2700 1250 2700 1550
Wire Wire Line
	2700 1550 2450 1550
Connection ~ 2450 1550
Wire Wire Line
	2450 1550 2450 1450
Wire Wire Line
	2000 1250 2000 1550
Wire Wire Line
	2000 1550 2250 1550
Connection ~ 2250 1550
Wire Wire Line
	2250 1550 2250 1450
NoConn ~ 2000 2250
NoConn ~ 2000 2350
NoConn ~ 2000 2450
NoConn ~ 2000 2550
NoConn ~ 2000 2650
Entry Wire Line
	2300 2050 2400 2150
Wire Wire Line
	2000 2050 2300 2050
Text Label 2050 2050 0    50   ~ 0
IRQ
Wire Wire Line
	2000 5550 2200 5550
Wire Wire Line
	2200 5550 2200 5700
Entry Wire Line
	2300 5450 2400 5550
Entry Wire Line
	2300 5350 2400 5450
Entry Wire Line
	2300 5250 2400 5350
Entry Wire Line
	2300 5150 2400 5250
Entry Wire Line
	2300 5050 2400 5150
Entry Wire Line
	2300 4950 2400 5050
Entry Wire Line
	2300 4850 2400 4950
Entry Wire Line
	2300 4750 2400 4850
Wire Wire Line
	2000 4750 2300 4750
Wire Wire Line
	2000 4850 2300 4850
Wire Wire Line
	2000 4950 2300 4950
Wire Wire Line
	2000 5050 2300 5050
Wire Wire Line
	2300 5150 2000 5150
Wire Wire Line
	2000 5250 2300 5250
Wire Wire Line
	2000 5350 2300 5350
Wire Wire Line
	2000 5450 2300 5450
Text Label 2150 4750 0    50   ~ 0
D0
Text Label 2150 4850 0    50   ~ 0
D1
Text Label 2150 4950 0    50   ~ 0
D2
Text Label 2150 5050 0    50   ~ 0
D3
Text Label 2150 5150 0    50   ~ 0
D4
Text Label 2150 5250 0    50   ~ 0
D5
Text Label 2150 5350 0    50   ~ 0
D6
Text Label 2150 5450 0    50   ~ 0
D7
Entry Wire Line
	2300 3150 2400 3250
Entry Wire Line
	2300 3250 2400 3350
Entry Wire Line
	2300 3350 2400 3450
Entry Wire Line
	2300 3450 2400 3550
Wire Wire Line
	2000 3150 2300 3150
Wire Wire Line
	2000 3250 2300 3250
Wire Wire Line
	2000 3350 2300 3350
Wire Wire Line
	2000 3450 2300 3450
Text Label 2050 3150 0    50   ~ 0
A0
Text Label 2050 3250 0    50   ~ 0
A1
Text Label 2050 3350 0    50   ~ 0
A2
Text Label 2050 3450 0    50   ~ 0
A3
NoConn ~ 2000 3550
NoConn ~ 2000 3650
NoConn ~ 2000 3750
NoConn ~ 2000 3850
NoConn ~ 2000 3950
NoConn ~ 2000 4050
NoConn ~ 2000 4150
NoConn ~ 2000 4250
NoConn ~ 2000 4350
NoConn ~ 2000 4450
NoConn ~ 2000 4550
NoConn ~ 2000 4650
$Comp
L 74xx:74LS00 U3
U 1 1 61D937D5
P 6900 4050
F 0 "U3" H 6900 4375 50  0000 C CNN
F 1 "74LS00" H 6900 4284 50  0000 C CNN
F 2 "Package_DIP:DIP-14_W7.62mm_LongPads" H 6900 4050 50  0001 C CNN
F 3 "http://www.ti.com/lit/gpn/sn74ls00" H 6900 4050 50  0001 C CNN
	1    6900 4050
	1    0    0    -1  
$EndComp
$Comp
L 74xx:74LS00 U3
U 2 1 61D9A34E
P 7450 2650
F 0 "U3" H 7450 2975 50  0000 C CNN
F 1 "74LS00" H 7450 2884 50  0000 C CNN
F 2 "Package_DIP:DIP-14_W7.62mm_LongPads" H 7450 2650 50  0001 C CNN
F 3 "http://www.ti.com/lit/gpn/sn74ls00" H 7450 2650 50  0001 C CNN
	2    7450 2650
	1    0    0    -1  
$EndComp
$Comp
L 74xx:74LS00 U3
U 5 1 61DA2554
P 2500 6800
F 0 "U3" H 2730 6846 50  0000 L CNN
F 1 "74LS00" H 2730 6755 50  0000 L CNN
F 2 "Package_DIP:DIP-14_W7.62mm_LongPads" H 2500 6800 50  0001 C CNN
F 3 "http://www.ti.com/lit/gpn/sn74ls00" H 2500 6800 50  0001 C CNN
	5    2500 6800
	1    0    0    -1  
$EndComp
Wire Wire Line
	6300 3550 6500 3550
Wire Wire Line
	6500 3550 6500 3950
Wire Wire Line
	6500 4150 6600 4150
Connection ~ 6500 3550
Wire Wire Line
	6500 3550 6900 3550
Wire Wire Line
	6600 3950 6500 3950
Connection ~ 6500 3950
Wire Wire Line
	6500 3950 6500 4150
Wire Wire Line
	8600 3650 7350 3650
Wire Wire Line
	7350 3650 7350 4050
Wire Wire Line
	7350 4050 7200 4050
$Comp
L Device:LED D1
U 1 1 61DDC87C
P 7900 2250
F 0 "D1" V 7939 2132 50  0000 R CNN
F 1 "LED AD" V 7848 2132 50  0000 R CNN
F 2 "LED_THT:LED_D3.0mm" H 7900 2250 50  0001 C CNN
F 3 "~" H 7900 2250 50  0001 C CNN
	1    7900 2250
	0    -1   -1   0   
$EndComp
$Comp
L power:+5V #PWR0112
U 1 1 61DDF101
P 7900 1400
F 0 "#PWR0112" H 7900 1250 50  0001 C CNN
F 1 "+5V" H 7915 1573 50  0000 C CNN
F 2 "" H 7900 1400 50  0001 C CNN
F 3 "" H 7900 1400 50  0001 C CNN
	1    7900 1400
	1    0    0    -1  
$EndComp
Wire Wire Line
	7150 2550 6900 2550
Wire Wire Line
	6900 2550 6900 2750
Connection ~ 6900 3550
Wire Wire Line
	6900 3550 8600 3550
Wire Wire Line
	7150 2750 6900 2750
Connection ~ 6900 2750
Wire Wire Line
	6900 2750 6900 3550
Wire Wire Line
	7750 2650 7900 2650
Wire Wire Line
	7900 2650 7900 2400
$Comp
L Device:R R5
U 1 1 61DF6E76
P 7900 1750
F 0 "R5" H 7970 1796 50  0000 L CNN
F 1 "1KΩ" H 7970 1705 50  0000 L CNN
F 2 "Resistor_THT:R_Axial_DIN0207_L6.3mm_D2.5mm_P10.16mm_Horizontal" V 7830 1750 50  0001 C CNN
F 3 "~" H 7900 1750 50  0001 C CNN
	1    7900 1750
	1    0    0    -1  
$EndComp
Wire Wire Line
	7900 1400 7900 1600
Wire Wire Line
	7900 1900 7900 2100
$Comp
L power:GND #PWR0113
U 1 1 61E1B9AF
P 2500 7400
F 0 "#PWR0113" H 2500 7150 50  0001 C CNN
F 1 "GND" H 2505 7227 50  0000 C CNN
F 2 "" H 2500 7400 50  0001 C CNN
F 3 "" H 2500 7400 50  0001 C CNN
	1    2500 7400
	1    0    0    -1  
$EndComp
Wire Wire Line
	2500 7300 2500 7400
$Comp
L power:+5V #PWR0114
U 1 1 61E20068
P 2500 6200
F 0 "#PWR0114" H 2500 6050 50  0001 C CNN
F 1 "+5V" H 2515 6373 50  0000 C CNN
F 2 "" H 2500 6200 50  0001 C CNN
F 3 "" H 2500 6200 50  0001 C CNN
	1    2500 6200
	1    0    0    -1  
$EndComp
Wire Wire Line
	2500 6200 2500 6250
$Comp
L Connector_Generic:Conn_01x12 J2
U 1 1 61E503E2
P 10400 3450
F 0 "J2" H 10480 3442 50  0000 L CNN
F 1 "PA" H 10480 3351 50  0000 L CNN
F 2 "Connector_PinSocket_2.54mm:PinSocket_1x12_P2.54mm_Vertical" H 10400 3450 50  0001 C CNN
F 3 "~" H 10400 3450 50  0001 C CNN
	1    10400 3450
	1    0    0    -1  
$EndComp
$Comp
L Connector_Generic:Conn_01x12 J3
U 1 1 61E52D62
P 10400 4650
F 0 "J3" H 10480 4642 50  0000 L CNN
F 1 "PB" H 10480 4551 50  0000 L CNN
F 2 "Connector_PinSocket_2.54mm:PinSocket_1x12_P2.54mm_Vertical" H 10400 4650 50  0001 C CNN
F 3 "~" H 10400 4650 50  0001 C CNN
	1    10400 4650
	1    0    0    -1  
$EndComp
Wire Wire Line
	9800 3050 10200 3050
Wire Wire Line
	9800 3150 10200 3150
Wire Wire Line
	9800 3250 10200 3250
Wire Wire Line
	9800 3350 10200 3350
Wire Wire Line
	9800 3450 10200 3450
Wire Wire Line
	9800 3550 10200 3550
Wire Wire Line
	9800 3650 10200 3650
Wire Wire Line
	9800 3750 10200 3750
Wire Wire Line
	9800 4250 10200 4250
Wire Wire Line
	9800 4350 10200 4350
Wire Wire Line
	9800 4450 10200 4450
Wire Wire Line
	9800 4550 10200 4550
Wire Wire Line
	9800 4650 10200 4650
Wire Wire Line
	9800 4750 10200 4750
Wire Wire Line
	9800 4850 10200 4850
Wire Wire Line
	9800 4950 10200 4950
Wire Wire Line
	9800 5150 9900 5150
Wire Wire Line
	9900 5150 9900 5050
Wire Wire Line
	9900 5050 10200 5050
Wire Wire Line
	9800 5250 10000 5250
Wire Wire Line
	10000 5250 10000 5150
Wire Wire Line
	10000 5150 10200 5150
Wire Wire Line
	9800 3950 9900 3950
Wire Wire Line
	9900 3950 9900 3850
Wire Wire Line
	9900 3850 10200 3850
Wire Wire Line
	9800 4050 10000 4050
Wire Wire Line
	10000 4050 10000 3950
Wire Wire Line
	10000 3950 10200 3950
$Comp
L power:GND #PWR0115
U 1 1 61EB710B
P 10050 4150
F 0 "#PWR0115" H 10050 3900 50  0001 C CNN
F 1 "GND" V 10055 4022 50  0000 R CNN
F 2 "" H 10050 4150 50  0001 C CNN
F 3 "" H 10050 4150 50  0001 C CNN
	1    10050 4150
	0    1    1    0   
$EndComp
Wire Wire Line
	10200 4050 10100 4050
Wire Wire Line
	10100 4050 10100 4150
Wire Wire Line
	10100 4150 10200 4150
Wire Wire Line
	10050 4150 10100 4150
Connection ~ 10100 4150
$Comp
L power:GND #PWR0116
U 1 1 61EC3D1C
P 10100 5400
F 0 "#PWR0116" H 10100 5150 50  0001 C CNN
F 1 "GND" H 10105 5227 50  0000 C CNN
F 2 "" H 10100 5400 50  0001 C CNN
F 3 "" H 10100 5400 50  0001 C CNN
	1    10100 5400
	1    0    0    -1  
$EndComp
$Comp
L power:GND #PWR0117
U 1 1 61EC49DF
P 10100 2800
F 0 "#PWR0117" H 10100 2550 50  0001 C CNN
F 1 "GND" H 10105 2627 50  0000 C CNN
F 2 "" H 10100 2800 50  0001 C CNN
F 3 "" H 10100 2800 50  0001 C CNN
	1    10100 2800
	-1   0    0    1   
$EndComp
Wire Wire Line
	10100 2800 10100 2950
Wire Wire Line
	10100 2950 10200 2950
Wire Wire Line
	10100 5400 10100 5250
Wire Wire Line
	10100 5250 10200 5250
$Comp
L Device:C C1
U 1 1 61F2B284
P 3250 6800
F 0 "C1" H 3365 6846 50  0000 L CNN
F 1 "0.1µF" H 3365 6755 50  0000 L CNN
F 2 "Capacitor_THT:C_Disc_D5.1mm_W3.2mm_P5.00mm" H 3288 6650 50  0001 C CNN
F 3 "~" H 3250 6800 50  0001 C CNN
	1    3250 6800
	1    0    0    -1  
$EndComp
$Comp
L Device:C C2
U 1 1 61F2C3BF
P 3750 6800
F 0 "C2" H 3865 6846 50  0000 L CNN
F 1 "0.1µF" H 3865 6755 50  0000 L CNN
F 2 "Capacitor_THT:C_Disc_D5.1mm_W3.2mm_P5.00mm" H 3788 6650 50  0001 C CNN
F 3 "~" H 3750 6800 50  0001 C CNN
	1    3750 6800
	1    0    0    -1  
$EndComp
$Comp
L Device:C C3
U 1 1 61F2CEC3
P 4250 6800
F 0 "C3" H 4365 6846 50  0000 L CNN
F 1 "0.1µF" H 4365 6755 50  0000 L CNN
F 2 "Capacitor_THT:C_Disc_D5.1mm_W3.2mm_P5.00mm" H 4288 6650 50  0001 C CNN
F 3 "~" H 4250 6800 50  0001 C CNN
	1    4250 6800
	1    0    0    -1  
$EndComp
Wire Wire Line
	2500 6250 3250 6250
Wire Wire Line
	4250 6250 4250 6650
Connection ~ 2500 6250
Wire Wire Line
	2500 6250 2500 6300
Wire Wire Line
	2500 7300 3250 7300
Wire Wire Line
	4250 7300 4250 6950
Connection ~ 2500 7300
Wire Wire Line
	3250 6650 3250 6250
Connection ~ 3250 6250
Wire Wire Line
	3250 6250 3750 6250
Wire Wire Line
	3750 6650 3750 6250
Connection ~ 3750 6250
Wire Wire Line
	3750 6250 4250 6250
Wire Wire Line
	3750 6950 3750 7300
Connection ~ 3750 7300
Wire Wire Line
	3750 7300 4250 7300
Wire Wire Line
	3250 6950 3250 7300
Connection ~ 3250 7300
Wire Wire Line
	3250 7300 3750 7300
Wire Bus Line
	4950 3350 4950 5650
Wire Bus Line
	8250 3150 8250 5650
Wire Bus Line
	2400 1950 2400 5650
$EndSCHEMATC
